<?xml version="1.0" encoding="UTF-8" standalone="no"?>
<!-- Created with Inkscape (http://www.inkscape.org/) -->

<svg
   width="500mm"
   height="500mm"
   viewBox="0 0 500 500"
   version="1.1"
   id="svg1"
   xml:space="preserve"
   inkscape:version="1.3.2 (091e20e, 2023-11-25, custom)"
   sodipodi:docname="sappho.svg"
   inkscape:export-filename="sappho.png"
   inkscape:export-xdpi="96"
   inkscape:export-ydpi="96"
   xmlns:inkscape="http://www.inkscape.org/namespaces/inkscape"
   xmlns:sodipodi="http://sodipodi.sourceforge.net/DTD/sodipodi-0.dtd"
   xmlns="http://www.w3.org/2000/svg"
   xmlns:svg="http://www.w3.org/2000/svg"><sodipodi:namedview
     id="namedview1"
     pagecolor="#f5c2e7"
     bordercolor="#000000"
     borderopacity="0.25"
     inkscape:showpageshadow="2"
     inkscape:pageopacity="0.0"
     inkscape:pagecheckerboard="0"
     inkscape:deskcolor="#d1d1d1"
     inkscape:document-units="mm"
     inkscape:zoom="0.396875"
     inkscape:cx="749.6063"
     inkscape:cy="915.90551"
     inkscape:window-width="1920"
     inkscape:window-height="1129"
     inkscape:window-x="-8"
     inkscape:window-y="-8"
     inkscape:window-maximized="1"
     inkscape:current-layer="layer1"
     inkscape:export-bgcolor="#f5c2e7ff" /><defs
     id="defs1" /><g
     inkscape:label="Layer 1"
     inkscape:groupmode="layer"
     id="layer1"
     style="fill:#ffffff;fill-opacity:1"><path
       d="m 166.17061,269.8307 a 72.293419,72.293419 0 1 0 0,-144.58683 72.293419,72.293419 0 1 0 0,144.58683 z m 113.60396,-72.29342 c 0,55.70467 -40.08413,102.04993 -92.94869,111.73208 v 22.52712 h 20.65525 c 11.42495,0 20.65527,9.23033 20.65527,20.65528 0,11.42492 -9.23032,20.65524 -20.65527,20.65524 h -20.65525 v 20.65527 c 0,11.42493 -9.23034,20.65527 -20.65527,20.65527 -11.42495,0 -20.65527,-9.23034 -20.65527,-20.65527 V 373.107 H 124.8601 c -11.42495,0 -20.65527,-9.23032 -20.65527,-20.65524 0,-11.42495 9.23032,-20.65528 20.65527,-20.65528 h 20.65524 V 309.26936 C 92.650792,299.58721 52.566663,253.24195 52.566663,197.53728 c 0,-62.74035 50.863597,-113.603953 113.603947,-113.603953 62.74037,0 113.60396,50.863603 113.60396,113.603953 z M 264.28312,289.195 c 9.42395,-10.06944 17.29878,-21.55892 23.23717,-34.21026 12.13496,9.29487 27.36822,14.84596 43.89242,14.84596 39.95503,0 72.29344,-32.33839 72.29344,-72.29342 0,-39.95502 -32.33841,-72.29341 -72.29344,-72.29341 -16.5242,0 -31.69291,5.55109 -43.89242,14.84595 -6.00295,-12.58678 -13.87778,-24.14082 -23.23717,-34.21026 18.78337,-13.81322 42.02054,-21.946233 67.12959,-21.946233 62.74037,0 113.60395,50.863603 113.60395,113.603953 0,55.70467 -40.08413,102.04993 -92.94868,111.73208 v 22.52712 h 20.65527 c 11.42493,0 20.65525,9.23033 20.65525,20.65528 0,11.42492 -9.23032,20.65524 -20.65525,20.65524 h -20.65527 v 20.65527 c 0,11.42493 -9.23032,20.65527 -20.65527,20.65527 -11.42493,0 -20.65525,-9.23034 -20.65525,-20.65527 V 373.107 h -20.65527 c -11.42495,0 -20.65527,-9.23032 -20.65527,-20.65524 0,-11.42495 9.23032,-20.65528 20.65527,-20.65528 h 20.65527 v -22.52712 c -17.1697,-3.16284 -32.98388,-10.134 -46.47434,-20.07436 z"
       id="path1"
       style="stroke-width:0.645477;fill:#ffffff;fill-opacity:1" /></g></svg>
